{
    "photos": {
        "page": 1,
        "pages": 79047,
        "perpage": 5,
        "total": "395232",
        "photo": [
            {
                "id": "49777624108",
                "owner": "148317948@N05",
                "secret": "f8e6e4c982",
                "server": "65535",
                "farm": 66,
                "title": "My Babe I Love It When He Chokes Me....Oh And Fuck A Hater",
                "ispublic": 1,
                "isfriend": 0,
                "isfamily": 0
            },
            {
                "id": "49777622728",
                "owner": "187789681@N04",
                "secret": "2d0dc4f0d2",
                "server": "65535",
                "farm": 66,
                "title": "Joe Jonas & Sophie Turner's TikTok Performance Over Who Fell In Love First",
                "ispublic": 1,
                "isfriend": 0,
                "isfamily": 0
            },
            {
                "id": "49778471372",
                "owner": "187874910@N02",
                "secret": "233e1de1ff",
                "server": "65535",
                "farm": 66,
                "title": "Fishing T-Shirt- Mother & Doughtier T-Shirt Design",
                "ispublic": 1,
                "isfriend": 0,
                "isfamily": 0
            },
            {
                "id": "49778139896",
                "owner": "78590035@N06",
                "secret": "a432c6ee29",
                "server": "65535",
                "farm": 66,
                "title": "Geek. April 2020",
                "ispublic": 1,
                "isfriend": 0,
                "isfamily": 0
            },
            {
                "id": "49778150751",
                "owner": "187964487@N03",
                "secret": "e7f0148f49",
                "server": "65535",
                "farm": 66,
                "title": "7 Gigantic Influences Of Gold Beaded Choker | Gold Beaded Choker",
                "ispublic": 1,
                "isfriend": 0,
                "isfamily": 0
            }
        ]
    },
    "stat": "ok"
}